{
  "eventsAndFunctions": [
    {
      "algorithm": {
        "parameters": [],
        "statements": [
          {
            "command": "SetValue",
            "expression": "{}",
            "widgetName": "htmlrenderer1"
          }
        ],
        "typeReturn": "any",
        "variables": []
      },
      "name": "main_init"
    },
    {
      "algorithm": {
        "parameters": [],
        "statements": [
          {
            "command": "GetValue",
            "variableName": "name",
            "widgetName": "txtName"
          },
          {
            "command": "SetValue",
            "expression": "MyMicroservice.Hello(^name)",
            "widgetName": "txtResult"
          }
        ],
        "typeReturn": "any",
        "variables": [
          {
            "name": "name",
            "type": "string"
          }
        ]
      },
      "name": "btnHello_click"
    }
  ],
  "model": [],
  "root": {
    "children": [
      {
        "cssClass": "blz-area-default",
        "htmlTemplate": "<h1>\n  Hello World! This is my first Solution in the cloud!\n</h1>",
        "name": "htmlrenderer1",
        "widget": "HtmlRenderer"
      },
      {
        "cssClass": "blz-area-default",
        "label": "Type your name here",
        "name": "txtName",
        "widget": "TextBox"
      },
      {
        "align": "left",
        "cssClass": "blz-area-default",
        "name": "btnHello",
        "text": "SUBMIT",
        "widget": "Button"
      },
      {
        "cssClass": "blz-area-default",
        "label": "Result",
        "name": "txtResult",
        "widget": "TextBox"
      }
    ],
    "cssClass": "blz-padding-top-large blz-padding-right-large blz-padding-left-large blz-padding-bottom-large blz-area-default",
    "horizontalSeparation": "large",
    "layout": "container",
    "verticalSeparation": "large"
  },
  "routing": {
    "path": "/home"
  },
  "unused": []
}