{
  "algorithm": {
    "parameters": [],
    "statements": [
      {
        "command": "LoadResource",
        "resourceName": "Culture:En",
        "variableName": "culture"
      },
      {
        "command": "LoadResource",
        "resourceName": "Menu:MenuMain",
        "variableName": "menu"
      },
      {
        "command": "Launch",
        "expressionCulture": "^culture",
        "expressionIcon": "\"logo.svg\"",
        "expressionMainMenu": "^menu",
        "expressionSubTitle": "null",
        "expressionTitle": "\"MyFrontend\"",
        "expressionToolsMenu": "null",
        "padding": "large",
        "uiComponentName": "CmpHome"
      }
    ],
    "typeReturn": "any",
    "variables": [
      {
        "name": "culture",
        "type": "Culture"
      },
      {
        "name": "menu",
        "type": "Menu"
      }
    ]
  }
}